<svg xmlns="http://www.w3.org/2000/svg" width="71" height="39" viewBox="0 0 71 39">
  <defs>
    <style>
      .cls-1 {
        fill: #fff;
        fill-rule: evenodd;
      }
    </style>
  </defs>
  <path id="Forma_1" data-name="Forma 1" class="cls-1" d="M6.724,22.7h4v6.451a3.733,3.733,0,0,0,3.726,3.737,3.661,3.661,0,0,0,1.771-.47v1.81a3.727,3.727,0,1,0,7.454,0V22.7h23.71V34.23a3.726,3.726,0,1,0,7.452,0V32.418a3.666,3.666,0,0,0,1.774.47,3.732,3.732,0,0,0,3.727-3.737V22.7h4.94a3.2,3.2,0,0,0,0-6.407h-4.94V9.845a3.733,3.733,0,0,0-3.727-3.738,3.678,3.678,0,0,0-1.774.47V4.765a3.726,3.726,0,1,0-7.452,0V16.294H23.677V4.766a3.727,3.727,0,1,0-7.454,0V6.577a3.665,3.665,0,0,0-1.771-.469,3.732,3.732,0,0,0-3.726,3.738V16.3h-4A3.2,3.2,0,0,0,6.724,22.7Z"/>
</svg>
