<svg xmlns="http://www.w3.org/2000/svg" width="24" height="23" viewBox="0 0 24 23">
  <defs>
    <style>
      .cls-1 {
        fill: #bdab7b;
        fill-rule: evenodd;
      }
    </style>
  </defs>
  <path id="Forma_1" data-name="Forma 1" class="cls-1" d="M9.024,12.121L1.481,18.586A1.537,1.537,0,0,0,2.533,19H20.79a1.53,1.53,0,0,0,1.048-.414L14.3,12.121,11.661,14.43ZM20.79,3.769H2.533a1.529,1.529,0,0,0-1.049.415l10.177,8.723,10.18-8.726A1.532,1.532,0,0,0,20.79,3.769ZM1,17.759L8.361,11.5,1,5.106V17.759Zm21.323,0V5.1l-7.361,6.4Z"/>
</svg>
